{
  "__comment__": "This file was automatically created by mcresources",
  "parent": "alekiships:block/watercraft_frame/flat/template/second",
  "textures": {
    "plank": "minecraft:block/spruce_planks"
  }
}