{
  "__comment__": "This file was automatically created by mcresources",
  "multipart": [
    {
      "apply": {
        "model": "alekiships:block/watercraft_frame/flat/frame"
      }
    },
    {
      "when": {
        "frame_processed": "0|1|2|3"
      },
      "apply": {
        "model": "alekiships:block/wood/watercraft_frame/flat/mangrove/first"
      }
    },
    {
      "when": {
        "frame_processed": "1|2|3"
      },
      "apply": {
        "model": "alekiships:block/wood/watercraft_frame/flat/mangrove/second"
      }
    },
    {
      "when": {
        "frame_processed": "2|3"
      },
      "apply": {
        "model": "alekiships:block/wood/watercraft_frame/flat/mangrove/third"
      }
    },
    {
      "when": {
        "frame_processed": "3"
      },
      "apply": {
        "model": "alekiships:block/wood/watercraft_frame/flat/mangrove/fourth"
      }
    }
  ]
}