{
  "__comment__": "This file was automatically created by mcresources",
  "replace": false,
  "values": [
    "alekiships:watercraft_frame_angled",
    "alekiships:watercraft_frame_flat",
    "#alekiships:wooden_watercraft_frames"
  ]
}