{
	"credit": "Made with Blockbench",
	"textures": {
		"0": "minecraft:block/stripped_oak_log"
	},
	"elements": [
		{
			"from": [30, 0, 6.5],
			"to": [31, 1, 9.5],
			"rotation": {"angle": 0, "axis": "y", "origin": [30.5, 0.5, 7.5]},
			"faces": {
				"north": {"uv": [0, 15, 1, 16], "texture": "#0"},
				"east": {"uv": [6, 15, 9, 16], "texture": "#0"},
				"south": {"uv": [15, 15, 16, 16], "texture": "#0"},
				"west": {"uv": [6, 15, 9, 16], "texture": "#0"},
				"up": {"uv": [15, 7, 16, 10], "texture": "#0"},
				"down": {"uv": [15, 7, 16, 10], "texture": "#0"}
			}
		},
		{
			"from": [0, 0, 7.5],
			"to": [16, 1, 8.5],
			"rotation": {"angle": 0, "axis": "y", "origin": [15, 0.5, 7.5]},
			"faces": {
				"north": {"uv": [0, 15, 16, 16], "texture": "#0"},
				"east": {"uv": [7.5, 15, 8.5, 16], "texture": "#0"},
				"south": {"uv": [0, 15, 16, 16], "texture": "#0"},
				"west": {"uv": [7.5, 15, 8.5, 16], "texture": "#0"},
				"up": {"uv": [0, 7, 16, 8], "texture": "#0"},
				"down": {"uv": [0, 7, 16, 8], "texture": "#0"}
			}
		},
		{
			"from": [16, 0, 7.5],
			"to": [30, 1, 8.5],
			"rotation": {"angle": 0, "axis": "y", "origin": [15, 0.5, 7.5]},
			"faces": {
				"north": {"uv": [0, 15, 14, 16], "texture": "#0"},
				"east": {"uv": [7.5, 15, 8.5, 16], "texture": "#0"},
				"south": {"uv": [0, 15, 14, 16], "texture": "#0"},
				"west": {"uv": [7.5, 15, 8.5, 16], "texture": "#0"},
				"up": {"uv": [0, 7, 14, 8], "texture": "#0"},
				"down": {"uv": [0, 7, 14, 8], "texture": "#0"}
			}
		},
		{
			"from": [-3, 0, 6.5],
			"to": [0, 1, 9.5],
			"rotation": {"angle": 0, "axis": "y", "origin": [-1.5, 0.5, 7.5]},
			"faces": {
				"north": {"uv": [13, 15, 16, 16], "texture": "#0"},
				"east": {"uv": [7, 15, 10, 16], "texture": "#0"},
				"south": {"uv": [0, 15, 3, 16], "texture": "#0"},
				"west": {"uv": [7, 15, 10, 16], "texture": "#0"},
				"up": {"uv": [0, 6, 3, 9], "texture": "#0"},
				"down": {"uv": [0, 6, 3, 9], "texture": "#0"}
			}
		},
		{
			"from": [-14, 0, 5.5],
			"to": [-3, 1, 10.5],
			"rotation": {"angle": 0, "axis": "y", "origin": [-8.5, 0.5, 7.5]},
			"faces": {
				"north": {"uv": [5, 14, 16, 15], "texture": "#0"},
				"east": {"uv": [5, 12, 10, 13], "texture": "#0"},
				"south": {"uv": [0, 14, 11, 15], "texture": "#0"},
				"west": {"uv": [5, 13, 10, 14], "texture": "#0"},
				"up": {"uv": [2.25, 5, 13.25, 10], "texture": "#0"},
				"down": {"uv": [2.25, 5, 13.25, 10], "texture": "#0"}
			}
		}
	],
	"display": {
		"thirdperson_righthand": {
			"rotation": [0, -90, 90],
			"translation": [0, -1, -6]
		},
		"thirdperson_lefthand": {
			"rotation": [0, -90, -90],
			"translation": [0, -1, 9]
		},
		"firstperson_righthand": {
			"rotation": [90, 100, 0],
			"translation": [13, -9, 0]
		},
		"firstperson_lefthand": {
			"rotation": [90, 100, 180],
			"translation": [15.25, -7.25, -18]
		}
	}
}