{
  "parent": "alekiships:rowboat_completed",
  "criteria": {
    "armorstand": {
      "trigger": "alekiships:armor_stand_on_boat"
    }
  },
  "display": {
    "icon": {
      "item": "minecraft:armor_stand"
    },
    "title": {
      "translate": "alekiships.advancements.armor_stand_on_boat.title"
    },
    "description": {
      "translate": "alekiships.advancements.armor_stand_on_boat.description"
    },
    "frame": "task",
    "show_toast": true,
    "announce_to_chat": true,
    "hidden": true,
    "background": "minecraft:textures/block/rock/cobblestone.png"
  },
  "requirements": [
    [
      "armorstand"
    ]
  ]
}