{
  "__comment__": "This file was automatically created by mcresources",
  "replace": false,
  "values": [
    "alekiships:unfinished_sloop_birch",
    "alekiships:unfinished_sloop_cherry",
    "alekiships:unfinished_sloop_dark_oak",
    "alekiships:unfinished_sloop_oak",
    "alekiships:unfinished_sloop_spruce"
  ]
}