{
  "__comment__": "This file was automatically created by mcresources",
  "type": "minecraft:crafting_shaped",
  "pattern": [
    "  S",
    " S ",
    "L  "
  ],
  "key": {
    "S": {
      "tag": "forge:rods/wooden"
    },
    "L": {
      "tag": "minecraft:wooden_slabs"
    }
  },
  "result": {
    "item": "alekiships:oar"
  }
}