{
  "__comment__": "This file was automatically created by mcresources",
  "type": "minecraft:crafting_shaped",
  "pattern": [
    "  S",
    " SS",
    "SS "
  ],
  "key": {
    "S": {
      "item": "minecraft:scaffolding"
    }
  },
  "result": {
    "item": "alekiships:watercraft_frame_angled",
    "count": 5
  }
}