{
  "__comment__": "This file was automatically created by mcresources",
  "parent": "alekiships:block/watercraft_frame/flat/template/first",
  "textures": {
    "plank": "minecraft:block/mangrove_planks"
  }
}