{
  "__comment__": "This file was automatically created by mcresources",
  "replace": false,
  "values": [
    "alekiships:compartment_barrel",
    "alekiships:compartment_blast_furnace",
    "alekiships:compartment_cartography_table",
    "alekiships:compartment_chest",
    "alekiships:compartment_empty",
    "alekiships:compartment_ender_chest",
    "alekiships:compartment_furnace",
    "alekiships:compartment_grindstone",
    "alekiships:compartment_loom",
    "alekiships:compartment_shulker_box",
    "alekiships:compartment_smithing_table",
    "alekiships:compartment_smoker",
    "alekiships:compartment_stonecutter",
    "alekiships:compartment_crafting_table",
    "alekiships:compartment_brewing_stand",
    "alekiships:compartment_note_block",
    "alekiships:compartment_jukebox"
  ]
}