{
  "__comment__": "This file was automatically created by mcresources",
  "parent": "alekiships:block/watercraft_frame/angled/template/straight/fourth",
  "textures": {
    "plank": "minecraft:block/warped_planks"
  }
}